{"count":23813,"next":"https://api.rawg.io/api/creators?page=2","previous":null,"results":[{"id":70,"name":"Cris Velasco","slug":"cris-velasco","image":"https://media.rawg.io/media/persons/6ea/6ea06e2ddd6c0190e5134f61d826f30f.jpg","image_background":"https://media.rawg.io/media/games/588/588c6bdff3d4baf66ec36b1c05b793bf.jpg","games_count":47,"positions":[{"id":3,"name":"composer","slug":"composer"}],"games":[{"id":802,"slug":"borderlands-2","name":"Borderlands 2","added":8517},{"id":4828,"slug":"borderlands","name":"Borderlands","added":5509},{"id":3387,"slug":"bloodborne","name":"Bloodborne","added":4892},{"id":10243,"slug":"company-of-heroes-2","name":"Company of Heroes 2","added":4726},{"id":4502,"slug":"darksiders","name":"Darksiders","added":4568},{"id":17540,"slug":"injustice-gods-among-us-ultimate-edition","name":"Injustice: Gods Among Us Ultimate Edition","added":3475}]},{"id":3,"name":"Dan Houser","slug":"dan-houser","image":"https://media.rawg.io/media/persons/8ba/8babec5b685ff0be2beee43f3b7b3eb5.jpg","image_background":"https://media.rawg.io/media/games/b11/b115b2bc6a5957a917bc7601f4abdda2.jpg","games_count":28,"positions":[{"id":1,"name":"writer","slug":"writer"},{"id":5,"name":"producer","slug":"producer"},{"id":6,"name":"designer","slug":"designer"}],"games":[{"id":3498,"slug":"grand-theft-auto-v","name":"Grand Theft Auto V","added":11138},{"id":4459,"slug":"grand-theft-auto-iv","name":"Grand Theft Auto IV","added":6771},{"id":28,"slug":"red-dead-redemption-2","name":"Red Dead Redemption 2","added":6740},{"id":4514,"slug":"la-noire","name":"L.A. Noire","added":5418},{"id":416,"slug":"grand-theft-auto-san-andreas","name":"Grand Theft Auto: San Andreas","added":5354},{"id":430,"slug":"grand-theft-auto-vice-city","name":"Grand Theft Auto: Vice City","added":4641}]},{"id":72,"name":"Jesper Kyd","slug":"jesper-kyd","image":"https://media.rawg.io/media/persons/2a5/2a502a143225ad0faf1f8319d58fb6c0.jpg","image_background":"https://media.rawg.io/media/games/588/588c6bdff3d4baf66ec36b1c05b793bf.jpg","games_count":44,"positions":[{"id":3,"name":"composer","slug":"composer"}],"games":[{"id":802,"slug":"borderlands-2","name":"Borderlands 2","added":8517},{"id":4828,"slug":"borderlands","name":"Borderlands","added":5509},{"id":3543,"slug":"borderlands-the-pre-sequel","name":"Borderlands: The Pre-Sequel","added":4748},{"id":28568,"slug":"assassins-creed-ii","name":"Assassin's Creed II","added":4077},{"id":4179,"slug":"darksiders-ii","name":"Darksiders II","added":3398},{"id":19569,"slug":"hitman-blood-money","name":"Hitman: Blood Money","added":3024}]},{"id":28,"name":"Mike Morasky","slug":"mike-morasky","image":"https://media.rawg.io/media/persons/c7a/c7a93276d53a31fd6d0edfd69cba5d62.jpg","image_background":"https://media.rawg.io/media/games/328/3283617cb7d75d67257fc58339188742.jpg","games_count":12,"positions":[{"id":1,"name":"writer","slug":"writer"},{"id":3,"name":"composer","slug":"composer"}],"games":[{"id":4200,"slug":"portal-2","name":"Portal 2","added":9862},{"id":12020,"slug":"left-4-dead-2","name":"Left 4 Dead 2","added":8636},{"id":13536,"slug":"portal","name":"Portal","added":8370},{"id":4291,"slug":"counter-strike-global-offensive","name":"Counter-Strike: Global Offensive","added":8154},{"id":11859,"slug":"team-fortress-2","name":"Team Fortress 2","added":7278},{"id":13535,"slug":"left-4-dead","name":"Left 4 Dead","added":4444}]},{"id":135,"name":"Inon Zur","slug":"inon-zur","image":"https://media.rawg.io/media/persons/af7/af78ede6f9fe3167a2786ef9c25c536f.jpg","image_background":"https://media.rawg.io/media/games/c88/c885ae6a24bbce21df93b6c4e1c78899.jpg","games_count":62,"positions":[{"id":3,"name":"composer","slug":"composer"}],"games":[{"id":3070,"slug":"fallout-4","name":"Fallout 4","added":6870},{"id":5563,"slug":"fallout-new-vegas","name":"Fallout: New Vegas","added":4563},{"id":4639,"slug":"dragon-age-origins","name":"Dragon Age: Origins","added":3779},{"id":5562,"slug":"fallout-3","name":"Fallout 3","added":3471},{"id":28559,"slug":"dragon-age-inquisition","name":"Dragon Age: Inquisition","added":2791},{"id":19451,"slug":"fallout-3-game-of-the-year-edition","name":"Fallout 3: Game of the Year Edition","added":2553}]},{"id":69,"name":"Sascha Dikiciyan","slug":"sonic-mayhem","image":"https://media.rawg.io/media/persons/6e7/6e7ffd8eab3da4726b3a32f3a54dc6ba.png","image_background":"https://media.rawg.io/media/games/588/588c6bdff3d4baf66ec36b1c05b793bf.jpg","games_count":44,"positions":[{"id":3,"name":"composer","slug":"composer"}],"games":[{"id":802,"slug":"borderlands-2","name":"Borderlands 2","added":8517},{"id":4828,"slug":"borderlands","name":"Borderlands","added":5509},{"id":1447,"slug":"deus-ex-mankind-divided","name":"Deus Ex: Mankind Divided","added":5442},{"id":4806,"slug":"mass-effect-2","name":"Mass Effect 2","added":5242},{"id":17540,"slug":"injustice-gods-among-us-ultimate-edition","name":"Injustice: Gods Among Us Ultimate Edition","added":3475},{"id":12756,"slug":"warhammer-40000-space-marine","name":"Warhammer 40,000: Space Marine","added":3463}]},{"id":88,"name":"Jason Graves","slug":"jason-graves","image":"https://media.rawg.io/media/persons/65f/65f760dcbbf10397d28d7349b3c7c07c.png","image_background":"https://media.rawg.io/media/games/81b/81b138691f027ed1f8720758daa0d895.jpg","games_count":52,"positions":[{"id":3,"name":"composer","slug":"composer"}],"games":[{"id":5286,"slug":"tomb-raider","name":"Tomb Raider (2013)","added":7861},{"id":4570,"slug":"dead-space","name":"Dead Space","added":5107},{"id":18241,"slug":"dmc-devil-may-cry-2","name":"DmC: Devil May Cry","added":3728},{"id":4550,"slug":"dead-space-2","name":"Dead Space 2","added":3577},{"id":3209,"slug":"until-dawn","name":"Until Dawn","added":3346},{"id":3427,"slug":"murdered-soul-suspect","name":"Murdered: Soul Suspect","added":2939}]},{"id":38,"name":"Kelly Bailey","slug":"kelly-bailey","image":"https://media.rawg.io/media/persons/85a/85ac6c27a323f4c4fe8c152043e14592.jpg","image_background":"https://media.rawg.io/media/games/7fa/7fa0b586293c5861ee32490e953a4996.jpg","games_count":9,"positions":[{"id":3,"name":"composer","slug":"composer"}],"games":[{"id":13536,"slug":"portal","name":"Portal","added":8370},{"id":13537,"slug":"half-life-2","name":"Half-Life 2","added":7631},{"id":19710,"slug":"half-life-2-episode-one","name":"Half-Life 2: Episode One","added":5911},{"id":19709,"slug":"half-life-2-episode-two","name":"Half-Life 2: Episode Two","added":5863},{"id":11935,"slug":"half-life-deathmatch-source","name":"Half-Life Deathmatch: Source","added":5208},{"id":18080,"slug":"half-life","name":"Half-Life","added":5155}]},{"id":9,"name":"Leslie Benzies","slug":"leslie-benzies","image":"https://media.rawg.io/media/persons_wiki/1a4/1a46f297ef44975f3865bcc09f324597.jpg","image_background":"https://media.rawg.io/media/games/b11/b115b2bc6a5957a917bc7601f4abdda2.jpg","games_count":15,"positions":[{"id":2,"name":"director","slug":"director"},{"id":5,"name":"producer","slug":"producer"},{"id":6,"name":"designer","slug":"designer"}],"games":[{"id":3498,"slug":"grand-theft-auto-v","name":"Grand Theft Auto V","added":11138},{"id":4459,"slug":"grand-theft-auto-iv","name":"Grand Theft Auto IV","added":6771},{"id":416,"slug":"grand-theft-auto-san-andreas","name":"Grand Theft Auto: San Andreas","added":5354},{"id":430,"slug":"grand-theft-auto-vice-city","name":"Grand Theft Auto: Vice City","added":4641},{"id":4544,"slug":"red-dead-redemption","name":"Red Dead Redemption","added":4253},{"id":432,"slug":"grand-theft-auto-iii","name":"Grand Theft Auto III","added":3679}]},{"id":47,"name":"Jeremy Soule","slug":"jeremy-soule","image":"https://media.rawg.io/media/persons/468/4683f81d90e2c74a5b8c4a57b1319d2e.jpg","image_background":"https://media.rawg.io/media/games/e9c/e9cbc91e2090638ddab6ae0b3d334f90.jpg","games_count":60,"positions":[{"id":3,"name":"composer","slug":"composer"}],"games":[{"id":5679,"slug":"the-elder-scrolls-v-skyrim","name":"The Elder Scrolls V: Skyrim","added":8838},{"id":12447,"slug":"the-elder-scrolls-v-skyrim-special-edition","name":"The Elder Scrolls V: Skyrim Special Edition","added":4245},{"id":18183,"slug":"company-of-heroes","name":"Company of Heroes","added":3509},{"id":15859,"slug":"star-wars-knights-of-the-old-republic-2","name":"STAR WARS - Knights of the Old Republic","added":3504},{"id":3300,"slug":"the-elder-scrolls-online-tamriel-unlimited","name":"The Elder Scrolls Online: Tamriel Unlimited","added":2492},{"id":13820,"slug":"morrowind","name":"The Elder Scrolls III: Morrowind","added":2054}]}]}