{
    "count": 169866,
    "next": "https://api.rawg.io/api/developers?page=2",
    "previous": null,
    "results": [
        {
            "id": 18893,
            "name": "Feral Interactive",
            "slug": "feral-interactive",
            "games_count": 110,
            "image_background": "https://media.rawg.io/media/games/78d/78dfae12fb8c5b16cd78648553071e0a.jpg",
            "games": [
                {
                    "id": 3439,
                    "slug": "life-is-strange-episode-1-2",
                    "name": "Life is Strange",
                    "added": 8285
                },
                {
                    "id": 5286,
                    "slug": "tomb-raider",
                    "name": "Tomb Raider (2013)",
                    "added": 7861
                },
                {
                    "id": 11973,
                    "slug": "shadow-of-mordor",
                    "name": "Middle-earth: Shadow of Mordor",
                    "added": 5944
                },
                {
                    "id": 10035,
                    "slug": "hitman",
                    "name": "HITMAN",
                    "added": 5745
                },
                {
                    "id": 7689,
                    "slug": "rise-of-the-tomb-raider",
                    "name": "Rise of the Tomb Raider",
                    "added": 5728
                },
                {
                    "id": 4427,
                    "slug": "bioshock-2",
                    "name": "BioShock 2",
                    "added": 5687
                }
            ]
        },
        {
            "id": 6,
            "name": "Sony Interactive Entertainment",
            "slug": "sony-interactive-entertainment",
            "games_count": 661,
            "image_background": "https://media.rawg.io/media/screenshots/c9c/c9c4e6d1792b5e12676819f3b57e5e26.jpeg",
            "games": [
                {
                    "id": 58134,
                    "slug": "marvels-spider-man",
                    "name": "Marvel's Spider-Man",
                    "added": 5033
                },
                {
                    "id": 3387,
                    "slug": "bloodborne",
                    "name": "Bloodborne",
                    "added": 4892
                },
                {
                    "id": 2743,
                    "slug": "heavy-rain",
                    "name": "Heavy Rain",
                    "added": 4220
                },
                {
                    "id": 3254,
                    "slug": "journey",
                    "name": "Journey",
                    "added": 4069
                },
                {
                    "id": 432,
                    "slug": "grand-theft-auto-iii",
                    "name": "Grand Theft Auto III",
                    "added": 3679
                },
                {
                    "id": 5193,
                    "slug": "oddworld-abes-oddysee",
                    "name": "Oddworld: Abe's Oddysee",
                    "added": 3443
                }
            ]
        },
        {
            "id": 405,
            "name": "Ubisoft",
            "slug": "ubisoft",
            "games_count": 292,
            "image_background": "https://media.rawg.io/media/screenshots/69b/69bb243ea9896ddfc2e051b58e81624d.jpg",
            "games": [
                {
                    "id": 4161,
                    "slug": "far-cry-3",
                    "name": "Far Cry 3",
                    "added": 5116
                },
                {
                    "id": 362,
                    "slug": "for-honor",
                    "name": "For Honor",
                    "added": 4967
                },
                {
                    "id": 3687,
                    "slug": "watch-dogs",
                    "name": "Watch Dogs",
                    "added": 4186
                },
                {
                    "id": 3771,
                    "slug": "rayman-legends",
                    "name": "Rayman Legends",
                    "added": 3794
                },
                {
                    "id": 3757,
                    "slug": "south-park-the-stick-of-truth",
                    "name": "South Park: The Stick of Truth",
                    "added": 3664
                },
                {
                    "id": 8488,
                    "slug": "tom-clancys-rainbow-six-siege-2",
                    "name": "Tom Clancy's Rainbow Six Siege",
                    "added": 3499
                }
            ]
        },
        {
            "id": 1612,
            "name": "Valve Software",
            "slug": "valve-software",
            "games_count": 39,
            "image_background": "https://media.rawg.io/media/screenshots/dba/dbacb00b6ad30fae992c93173171ded4.jpg",
            "games": [
                {
                    "id": 4200,
                    "slug": "portal-2",
                    "name": "Portal 2",
                    "added": 9862
                },
                {
                    "id": 12020,
                    "slug": "left-4-dead-2",
                    "name": "Left 4 Dead 2",
                    "added": 8636
                },
                {
                    "id": 13536,
                    "slug": "portal",
                    "name": "Portal",
                    "added": 8370
                },
                {
                    "id": 4291,
                    "slug": "counter-strike-global-offensive",
                    "name": "Counter-Strike: Global Offensive",
                    "added": 8153
                },
                {
                    "id": 13537,
                    "slug": "half-life-2",
                    "name": "Half-Life 2",
                    "added": 7631
                },
                {
                    "id": 11859,
                    "slug": "team-fortress-2",
                    "name": "Team Fortress 2",
                    "added": 7278
                }
            ]
        },
        {
            "id": 109,
            "name": "Electronic Arts",
            "slug": "electronic-arts",
            "games_count": 314,
            "image_background": "https://media.rawg.io/media/games/45b/45b57ed59de4b84effd8f6bc4b7bf515.jpg",
            "games": [
                {
                    "id": 4570,
                    "slug": "dead-space",
                    "name": "Dead Space",
                    "added": 5107
                },
                {
                    "id": 5525,
                    "slug": "brutal-legend",
                    "name": "Brutal Legend",
                    "added": 4901
                },
                {
                    "id": 4550,
                    "slug": "dead-space-2",
                    "name": "Dead Space 2",
                    "added": 3577
                },
                {
                    "id": 998,
                    "slug": "battlefield-1",
                    "name": "Battlefield 1",
                    "added": 3485
                },
                {
                    "id": 3842,
                    "slug": "battlefield-4",
                    "name": "Battlefield 4",
                    "added": 2997
                },
                {
                    "id": 5342,
                    "slug": "medal-of-honor",
                    "name": "Medal of Honor",
                    "added": 2779
                }
            ]
        },
        {
            "id": 4132,
            "name": "Square Enix",
            "slug": "square-enix",
            "games_count": 284,
            "image_background": "https://media.rawg.io/media/games/683/6833fbb183fd72a61c032501e3bc6d36.jpg",
            "games": [
                {
                    "id": 3439,
                    "slug": "life-is-strange-episode-1-2",
                    "name": "Life is Strange",
                    "added": 8285
                },
                {
                    "id": 5286,
                    "slug": "tomb-raider",
                    "name": "Tomb Raider (2013)",
                    "added": 7861
                },
                {
                    "id": 10035,
                    "slug": "hitman",
                    "name": "HITMAN",
                    "added": 5745
                },
                {
                    "id": 4513,
                    "slug": "just-cause-2",
                    "name": "Just Cause 2",
                    "added": 4620
                },
                {
                    "id": 3017,
                    "slug": "just-cause-3",
                    "name": "Just Cause 3",
                    "added": 4593
                },
                {
                    "id": 3766,
                    "slug": "thief",
                    "name": "Thief",
                    "added": 3570
                }
            ]
        },
        {
            "id": 17132,
            "name": "Aspyr Media",
            "slug": "aspyr-media",
            "games_count": 59,
            "image_background": "https://media.rawg.io/media/games/997/997ab4d67e96fb20a4092383477d4463.jpg",
            "games": [
                {
                    "id": 802,
                    "slug": "borderlands-2",
                    "name": "Borderlands 2",
                    "added": 8517
                },
                {
                    "id": 4062,
                    "slug": "bioshock-infinite",
                    "name": "BioShock Infinite",
                    "added": 8375
                },
                {
                    "id": 13633,
                    "slug": "civilization-v",
                    "name": "Sid Meier's Civilization V",
                    "added": 5605
                },
                {
                    "id": 3543,
                    "slug": "borderlands-the-pre-sequel",
                    "name": "Borderlands: The Pre-Sequel",
                    "added": 4748
                },
                {
                    "id": 2792,
                    "slug": "layers-of-fear",
                    "name": "Layers of Fear",
                    "added": 4437
                },
                {
                    "id": 4527,
                    "slug": "modern-warfare-2",
                    "name": "Call of Duty: Modern Warfare 2",
                    "added": 3946
                }
            ]
        },
        {
            "id": 3709,
            "name": "Ubisoft Montreal",
            "slug": "ubisoft-montreal",
            "games_count": 105,
            "image_background": "https://media.rawg.io/media/games/dd7/dd72d8a527cd9245c7eb7cd05aa53efa.jpg",
            "games": [
                {
                    "id": 4161,
                    "slug": "far-cry-3",
                    "name": "Far Cry 3",
                    "added": 5116
                },
                {
                    "id": 362,
                    "slug": "for-honor",
                    "name": "For Honor",
                    "added": 4967
                },
                {
                    "id": 3841,
                    "slug": "assassins-creed-iv-black-flag",
                    "name": "Assassin’s Creed IV: Black Flag",
                    "added": 4742
                },
                {
                    "id": 3687,
                    "slug": "watch-dogs",
                    "name": "Watch Dogs",
                    "added": 4186
                },
                {
                    "id": 28568,
                    "slug": "assassins-creed-ii",
                    "name": "Assassin's Creed II",
                    "added": 4077
                },
                {
                    "id": 13305,
                    "slug": "assassins-creed-iii-2",
                    "name": "Assassin’s Creed III",
                    "added": 3968
                }
            ]
        },
        {
            "id": 4,
            "name": "Bethesda Softworks",
            "slug": "bethesda-softworks",
            "games_count": 67,
            "image_background": "https://media.rawg.io/media/games/55c/55c7e7a972d361db3677c1dd10a5558d.jpg",
            "games": [
                {
                    "id": 5679,
                    "slug": "the-elder-scrolls-v-skyrim",
                    "name": "The Elder Scrolls V: Skyrim",
                    "added": 8838
                },
                {
                    "id": 2454,
                    "slug": "doom",
                    "name": "DOOM (2016)",
                    "added": 6794
                },
                {
                    "id": 3696,
                    "slug": "wolfenstein-the-new-order",
                    "name": "Wolfenstein: The New Order",
                    "added": 5326
                },
                {
                    "id": 4248,
                    "slug": "dishonored",
                    "name": "Dishonored",
                    "added": 4614
                },
                {
                    "id": 5563,
                    "slug": "fallout-new-vegas",
                    "name": "Fallout: New Vegas",
                    "added": 4563
                },
                {
                    "id": 864,
                    "slug": "dishonored-2",
                    "name": "Dishonored 2",
                    "added": 4127
                }
            ]
        },
        {
            "id": 3678,
            "name": "Capcom",
            "slug": "capcom",
            "games_count": 382,
            "image_background": "https://media.rawg.io/media/games/ea3/ea3228b5c6c749019a9ed42e90a4e7c6.jpg",
            "games": [
                {
                    "id": 13461,
                    "slug": "resident-evil-5-biohazard-5",
                    "name": "Resident Evil 5",
                    "added": 3872
                },
                {
                    "id": 46889,
                    "slug": "monster-hunter-world-2",
                    "name": "Monster Hunter: World",
                    "added": 3766
                },
                {
                    "id": 2623,
                    "slug": "resident-evil-6",
                    "name": "Resident Evil 6",
                    "added": 3125
                },
                {
                    "id": 56184,
                    "slug": "resident-evil-4",
                    "name": "Resident Evil 4",
                    "added": 3039
                },
                {
                    "id": 480,
                    "slug": "resident-evil-7-biohazard",
                    "name": "Resident Evil 7: Biohazard",
                    "added": 2992
                },
                {
                    "id": 58755,
                    "slug": "devil-may-cry-5",
                    "name": "Devil May Cry 5",
                    "added": 2719
                }
            ]
        }
    ]
}