{"count":40562,"next":"https://api.rawg.io/api/publishers?page=2","previous":null,"results":[{"id":354,"name":"Electronic Arts","slug":"electronic-arts","games_count":1204,"image_background":"https://media.rawg.io/media/screenshots/8b6/8b649c615aa00df9b0487c7a5c94507d.jpg","games":[{"id":4200,"slug":"portal-2","name":"Portal 2","added":9862},{"id":12020,"slug":"left-4-dead-2","name":"Left 4 Dead 2","added":8636},{"id":4252,"slug":"mirrors-edge","name":"Mirror's Edge","added":5624},{"id":4806,"slug":"mass-effect-2","name":"Mass Effect 2","added":5242},{"id":4570,"slug":"dead-space","name":"Dead Space","added":5107},{"id":4166,"slug":"mass-effect","name":"Mass Effect","added":4850}]},{"id":20987,"name":"Microsoft Studios","slug":"microsoft-studios","games_count":458,"image_background":"https://media.rawg.io/media/games/af7/af7a831001c5c32c46e950cc883b8cb7.jpg","games":[{"id":1030,"slug":"limbo","name":"Limbo","added":7785},{"id":7689,"slug":"rise-of-the-tomb-raider","name":"Rise of the Tomb Raider","added":5728},{"id":3144,"slug":"super-meat-boy","name":"Super Meat Boy","added":5629},{"id":19487,"slug":"alan-wake","name":"Alan Wake","added":5435},{"id":5525,"slug":"brutal-legend","name":"Brutal Legend","added":4901},{"id":4166,"slug":"mass-effect","name":"Mass Effect","added":4850}]},{"id":918,"name":"Ubisoft Entertainment","slug":"ubisoft-entertainment","games_count":969,"image_background":"https://media.rawg.io/media/games/c6b/c6bd26767c1053fef2b10bb852943559.jpg","games":[{"id":4161,"slug":"far-cry-3","name":"Far Cry 3","added":5116},{"id":362,"slug":"for-honor","name":"For Honor","added":4967},{"id":3841,"slug":"assassins-creed-iv-black-flag","name":"Assassin’s Creed IV: Black Flag","added":4742},{"id":3687,"slug":"watch-dogs","name":"Watch Dogs","added":4186},{"id":28568,"slug":"assassins-creed-ii","name":"Assassin's Creed II","added":4077},{"id":13305,"slug":"assassins-creed-iii-2","name":"Assassin’s Creed III","added":3968}]},{"id":308,"name":"Square Enix","slug":"square-enix","games_count":448,"image_background":"https://media.rawg.io/media/games/81e/81e6c6819d4322caf375b6735c3043ec.jpg","games":[{"id":3439,"slug":"life-is-strange-episode-1-2","name":"Life is Strange","added":8285},{"id":5286,"slug":"tomb-raider","name":"Tomb Raider (2013)","added":7861},{"id":10035,"slug":"hitman","name":"HITMAN","added":5745},{"id":7689,"slug":"rise-of-the-tomb-raider","name":"Rise of the Tomb Raider","added":5728},{"id":1447,"slug":"deus-ex-mankind-divided","name":"Deus Ex: Mankind Divided","added":5442},{"id":5583,"slug":"hitman-absolution","name":"Hitman: Absolution","added":4861}]},{"id":3408,"name":"SEGA","slug":"sega-2","games_count":1067,"image_background":"https://media.rawg.io/media/screenshots/8c4/8c414d6590b8c70b1cd374ce1a447f52.jpg","games":[{"id":10243,"slug":"company-of-heroes-2","name":"Company of Heroes 2","added":4725},{"id":28179,"slug":"sega-mega-drive-and-genesis-classics","name":"SEGA Mega Drive and Genesis Classics","added":3932},{"id":18183,"slug":"company-of-heroes","name":"Company of Heroes","added":3508},{"id":12756,"slug":"warhammer-40000-space-marine","name":"Warhammer 40,000: Space Marine","added":3463},{"id":3556,"slug":"alien-isolation","name":"Alien: Isolation","added":3431},{"id":53341,"slug":"jet-set-radio-2012","name":"Jet Set Radio","added":3172}]},{"id":19651,"name":"Feral Interactive","slug":"feral-interactive","games_count":107,"image_background":"https://media.rawg.io/media/screenshots/e1e/e1e549193e18bc25124d4484395ae37f.jpg","games":[{"id":3439,"slug":"life-is-strange-episode-1-2","name":"Life is Strange","added":8285},{"id":5286,"slug":"tomb-raider","name":"Tomb Raider (2013)","added":7861},{"id":4286,"slug":"bioshock","name":"BioShock","added":7586},{"id":11973,"slug":"shadow-of-mordor","name":"Middle-earth: Shadow of Mordor","added":5944},{"id":10035,"slug":"hitman","name":"HITMAN","added":5745},{"id":7689,"slug":"rise-of-the-tomb-raider","name":"Rise of the Tomb Raider","added":5728}]},{"id":358,"name":"2K Games","slug":"2k-games","games_count":181,"image_background":"https://media.rawg.io/media/games/7ca/7ca90d463ea0c0252e7d01afe897ffa8.jpg","games":[{"id":802,"slug":"borderlands-2","name":"Borderlands 2","added":8517},{"id":4062,"slug":"bioshock-infinite","name":"BioShock Infinite","added":8375},{"id":4286,"slug":"bioshock","name":"BioShock","added":7586},{"id":4332,"slug":"spec-ops-the-line","name":"Spec Ops: The Line","added":5882},{"id":4427,"slug":"bioshock-2","name":"BioShock 2","added":5687},{"id":13633,"slug":"civilization-v","name":"Sid Meier's Civilization V","added":5605}]},{"id":3399,"name":"Valve","slug":"valve","games_count":39,"image_background":"https://media.rawg.io/media/screenshots/b04/b042f8a7d3d9f8fe61d5af5d47ab6088.jpg","games":[{"id":4200,"slug":"portal-2","name":"Portal 2","added":9862},{"id":12020,"slug":"left-4-dead-2","name":"Left 4 Dead 2","added":8636},{"id":13536,"slug":"portal","name":"Portal","added":8370},{"id":4291,"slug":"counter-strike-global-offensive","name":"Counter-Strike: Global Offensive","added":8153},{"id":13537,"slug":"half-life-2","name":"Half-Life 2","added":7631},{"id":11859,"slug":"team-fortress-2","name":"Team Fortress 2","added":7278}]},{"id":10212,"name":"Sony Computer Entertainment","slug":"sony-computer-entertainment","games_count":453,"image_background":"https://media.rawg.io/media/games/c97/c979baea7e59e0bc857c0836052373dd.jpg","games":[{"id":278,"slug":"horizon-zero-dawn","name":"Horizon Zero Dawn","added":6044},{"id":2462,"slug":"uncharted-4-a-thiefs-end","name":"Uncharted 4: A Thief’s End","added":5546},{"id":3636,"slug":"the-last-of-us-remastered","name":"The Last Of Us Remastered","added":5220},{"id":58134,"slug":"marvels-spider-man","name":"Marvel's Spider-Man","added":5033},{"id":2743,"slug":"heavy-rain","name":"Heavy Rain","added":4220},{"id":5703,"slug":"uncharted-3-drakes-deception","name":"Uncharted 3: Drake's Deception","added":4231}]},{"id":339,"name":"Bethesda Softworks","slug":"bethesda-softworks","games_count":150,"image_background":"https://media.rawg.io/media/games/c4b/c4b0cab189e73432de3a250d8cf1c84e.jpg","games":[{"id":5679,"slug":"the-elder-scrolls-v-skyrim","name":"The Elder Scrolls V: Skyrim","added":8838},{"id":3070,"slug":"fallout-4","name":"Fallout 4","added":6870},{"id":2454,"slug":"doom","name":"DOOM (2016)","added":6794},{"id":3696,"slug":"wolfenstein-the-new-order","name":"Wolfenstein: The New Order","added":5326},{"id":39,"slug":"prey","name":"Prey (2017)","added":4737},{"id":4248,"slug":"dishonored","name":"Dishonored","added":4614}]}]}