{"count":5571,"next":"https://api.rawg.io/api/tags?page=2","previous":null,"results":[{"id":31,"name":"Singleplayer","slug":"singleplayer","games_count":67313,"image_background":"https://media.rawg.io/media/games/34b/34b1f1850a1c06fd971bc6ab3ac0ce0e.jpg","language":"eng","games":[{"id":3498,"slug":"grand-theft-auto-v","name":"Grand Theft Auto V","added":11138},{"id":4200,"slug":"portal-2","name":"Portal 2","added":9862},{"id":3328,"slug":"the-witcher-3-wild-hunt","name":"The Witcher 3: Wild Hunt","added":9505},{"id":5679,"slug":"the-elder-scrolls-v-skyrim","name":"The Elder Scrolls V: Skyrim","added":8838},{"id":12020,"slug":"left-4-dead-2","name":"Left 4 Dead 2","added":8636},{"id":802,"slug":"borderlands-2","name":"Borderlands 2","added":8517}]},{"id":40847,"name":"Steam Achievements","slug":"steam-achievements","games_count":17553,"image_background":"https://media.rawg.io/media/games/91c/91c4f377c1e09755b60a0102c5252843.jpg","language":"eng","games":[{"id":3498,"slug":"grand-theft-auto-v","name":"Grand Theft Auto V","added":11138},{"id":4200,"slug":"portal-2","name":"Portal 2","added":9862},{"id":3328,"slug":"the-witcher-3-wild-hunt","name":"The Witcher 3: Wild Hunt","added":9505},{"id":5679,"slug":"the-elder-scrolls-v-skyrim","name":"The Elder Scrolls V: Skyrim","added":8838},{"id":12020,"slug":"left-4-dead-2","name":"Left 4 Dead 2","added":8636},{"id":802,"slug":"borderlands-2","name":"Borderlands 2","added":8517}]},{"id":7808,"name":"steam-trading-cards","slug":"steam-trading-cards","games_count":7634,"image_background":"https://media.rawg.io/media/games/e04/e04963f3ac4c4fa83a1dc0b9231e50db.jpg","language":"eng","games":[{"id":4200,"slug":"portal-2","name":"Portal 2","added":9862},{"id":3328,"slug":"the-witcher-3-wild-hunt","name":"The Witcher 3: Wild Hunt","added":9505},{"id":5679,"slug":"the-elder-scrolls-v-skyrim","name":"The Elder Scrolls V: Skyrim","added":8838},{"id":12020,"slug":"left-4-dead-2","name":"Left 4 Dead 2","added":8636},{"id":802,"slug":"borderlands-2","name":"Borderlands 2","added":8517},{"id":4062,"slug":"bioshock-infinite","name":"BioShock Infinite","added":8375}]},{"id":7,"name":"Multiplayer","slug":"multiplayer","games_count":19236,"image_background":"https://media.rawg.io/media/games/64b/64bb90ca6b1df8a36d710f6542111142.jpg","language":"eng","games":[{"id":3498,"slug":"grand-theft-auto-v","name":"Grand Theft Auto V","added":11138},{"id":4200,"slug":"portal-2","name":"Portal 2","added":9862},{"id":12020,"slug":"left-4-dead-2","name":"Left 4 Dead 2","added":8636},{"id":802,"slug":"borderlands-2","name":"Borderlands 2","added":8517},{"id":4291,"slug":"counter-strike-global-offensive","name":"Counter-Strike: Global Offensive","added":8155},{"id":5286,"slug":"tomb-raider","name":"Tomb Raider (2013)","added":7861}]},{"id":40849,"name":"Steam Cloud","slug":"steam-cloud","games_count":8234,"image_background":"https://media.rawg.io/media/games/328/3283617cb7d75d67257fc58339188742.jpg","language":"eng","games":[{"id":4200,"slug":"portal-2","name":"Portal 2","added":9862},{"id":3328,"slug":"the-witcher-3-wild-hunt","name":"The Witcher 3: Wild Hunt","added":9505},{"id":5679,"slug":"the-elder-scrolls-v-skyrim","name":"The Elder Scrolls V: Skyrim","added":8838},{"id":12020,"slug":"left-4-dead-2","name":"Left 4 Dead 2","added":8636},{"id":802,"slug":"borderlands-2","name":"Borderlands 2","added":8517},{"id":4062,"slug":"bioshock-infinite","name":"BioShock Infinite","added":8375}]},{"id":13,"name":"Atmospheric","slug":"atmospheric","games_count":7378,"image_background":"https://media.rawg.io/media/games/b11/b115b2bc6a5957a917bc7601f4abdda2.jpg","language":"eng","games":[{"id":3498,"slug":"grand-theft-auto-v","name":"Grand Theft Auto V","added":11138},{"id":4200,"slug":"portal-2","name":"Portal 2","added":9862},{"id":3328,"slug":"the-witcher-3-wild-hunt","name":"The Witcher 3: Wild Hunt","added":9505},{"id":5679,"slug":"the-elder-scrolls-v-skyrim","name":"The Elder Scrolls V: Skyrim","added":8838},{"id":802,"slug":"borderlands-2","name":"Borderlands 2","added":8517},{"id":13536,"slug":"portal","name":"Portal","added":8370}]},{"id":40836,"name":"Full controller support","slug":"full-controller-support","games_count":8167,"image_background":"https://media.rawg.io/media/games/929/9295e55ce69cf5337c567983cf8b4137.jpeg","language":"eng","games":[{"id":3498,"slug":"grand-theft-auto-v","name":"Grand Theft Auto V","added":11138},{"id":4200,"slug":"portal-2","name":"Portal 2","added":9862},{"id":3328,"slug":"the-witcher-3-wild-hunt","name":"The Witcher 3: Wild Hunt","added":9505},{"id":12020,"slug":"left-4-dead-2","name":"Left 4 Dead 2","added":8636},{"id":802,"slug":"borderlands-2","name":"Borderlands 2","added":8517},{"id":4062,"slug":"bioshock-infinite","name":"BioShock Infinite","added":8375}]},{"id":42,"name":"Great Soundtrack","slug":"great-soundtrack","games_count":2787,"image_background":"https://media.rawg.io/media/games/ee3/ee3e10193aafc3230ba1cae426967d10.jpg","language":"eng","games":[{"id":3498,"slug":"grand-theft-auto-v","name":"Grand Theft Auto V","added":11138},{"id":3328,"slug":"the-witcher-3-wild-hunt","name":"The Witcher 3: Wild Hunt","added":9505},{"id":5679,"slug":"the-elder-scrolls-v-skyrim","name":"The Elder Scrolls V: Skyrim","added":8838},{"id":13536,"slug":"portal","name":"Portal","added":8370},{"id":4062,"slug":"bioshock-infinite","name":"BioShock Infinite","added":8375},{"id":3439,"slug":"life-is-strange-episode-1-2","name":"Life is Strange","added":8285}]},{"id":24,"name":"RPG","slug":"rpg","games_count":9052,"image_background":"https://media.rawg.io/media/games/81b/81b138691f027ed1f8720758daa0d895.jpg","language":"eng","games":[{"id":3498,"slug":"grand-theft-auto-v","name":"Grand Theft Auto V","added":11138},{"id":3328,"slug":"the-witcher-3-wild-hunt","name":"The Witcher 3: Wild Hunt","added":9505},{"id":5679,"slug":"the-elder-scrolls-v-skyrim","name":"The Elder Scrolls V: Skyrim","added":8838},{"id":802,"slug":"borderlands-2","name":"Borderlands 2","added":8517},{"id":4062,"slug":"bioshock-infinite","name":"BioShock Infinite","added":8375},{"id":5286,"slug":"tomb-raider","name":"Tomb Raider (2013)","added":7861}]},{"id":18,"name":"Co-op","slug":"co-op","games_count":4883,"image_background":"https://media.rawg.io/media/games/5bb/5bb55ccb8205aadbb6a144cf6d8963f1.jpg","language":"eng","games":[{"id":3498,"slug":"grand-theft-auto-v","name":"Grand Theft Auto V","added":11138},{"id":4200,"slug":"portal-2","name":"Portal 2","added":9862},{"id":12020,"slug":"left-4-dead-2","name":"Left 4 Dead 2","added":8636},{"id":802,"slug":"borderlands-2","name":"Borderlands 2","added":8517},{"id":4291,"slug":"counter-strike-global-offensive","name":"Counter-Strike: Global Offensive","added":8155},{"id":11859,"slug":"team-fortress-2","name":"Team Fortress 2","added":7278}]}]}